module gitlab.ozon.dev/alkrev/homework-2

go 1.18

require (
	github.com/go-telegram-bot-api/telegram-bot-api/v5 v5.5.1
	github.com/gojuno/minimock/v3 v3.0.10
	github.com/golang/protobuf v1.5.2
	github.com/grpc-ecosystem/grpc-gateway v1.16.0
	github.com/jackc/pgx/v4 v4.16.0
	github.com/pressly/goose/v3 v3.5.3
	github.com/stretchr/testify v1.7.0
	golang.org/x/sync v0.0.0-20210220032951-036812b2e83c
	google.golang.org/genproto v0.0.0-20220505152158-f39f71e6c8f3
	google.golang.org/grpc v1.46.0
	google.golang.org/protobuf v1.28.0
	gopkg.in/yaml.v2 v2.4.0
)

require (
	github.com/davecgh/go-spew v1.1.1 // indirect
	github.com/ghodss/yaml v1.0.0 // indirect
	github.com/golang/glog v1.0.0 // indirect
	github.com/google/go-cmp v0.5.7 // indirect
	github.com/jackc/chunkreader/v2 v2.0.1 // indirect
	github.com/jackc/pgconn v1.12.0 // indirect
	github.com/jackc/pgio v1.0.0 // indirect
	github.com/jackc/pgpassfile v1.0.0 // indirect
	github.com/jackc/pgproto3/v2 v2.3.0 // indirect
	github.com/jackc/pgservicefile v0.0.0-20200714003250-2b9c44734f2b // indirect
	github.com/jackc/pgtype v1.11.0 // indirect
	github.com/jackc/puddle v1.2.1 // indirect
	github.com/pkg/errors v0.9.1 // indirect
	github.com/pmezard/go-difflib v1.0.0 // indirect
	golang.org/x/crypto v0.0.0-20220210151621-f4118a5b28e2 // indirect
	golang.org/x/net v0.0.0-20220127200216-cd36cc0744dd // indirect
	golang.org/x/sys v0.0.0-20220209214540-3681064d5158 // indirect
	golang.org/x/text v0.3.7 // indirect
	gopkg.in/yaml.v3 v3.0.0-20210107192922-496545a6307b // indirect
)
